0.12832825746598503;0.6724707168594781;0.40128107594019047;0.1382079997334018;0.4350843337024842;0.7911668681103139;0.7332853842947687;0.5113206962433217;0.5275544529177547;0.4253365475997152;0.7177236298778449;0.6782588951118896;0.24094925566746783;0.3254992727327026;0.6873638580776708;0.356742279472694;0.5349194482374844;0.6328106712172591;0.5333518751707533;0.3329967169715103;0.4299851828743338;0.46061601400269603;0.7512250892308345;0.909627854109838;0.9003976363676603;0.18369979572610473;0.7436187851007569;0.265788952389476;0.24097291949149524;0.621593104073222;0.04358220021552578
0.5537497897622214;0.5754776112502761;0.27758844741794925;0.17396798351665763;0.5057034758909635;0.17602451970419844;0.3047142162271944;0.5432788037377781;0.3323306324197465;0.684249482319375;0.9369475577618438;0.22957836348285576;0.3033497317676078;0.03937653797543794;0.8410780300068734;0.26155394740623694;0.08692870137755554;0.24927992190381262;0.04915443107248585;0.3412005650189864;0.512457853010228;0.5272597990449827;0.5610904175611514;0.7660048236709012;0.580085372032719;0.35193631992824126;0.7475263171930262;0.05455652488833568;0.5620073646170608;0.4030600236369821;0.27115457502585316
0.021398852978555483;0.21173782105488204;0.6489220396704538;0.33212115890048527;0.6817480819087218;0.3763386782021538;0.47911060254995314;0.1634456694483482;0.42203163692881807;0.1689356600009215;0.05474422602377843;0.4648193626172143;0.08937208067301222;0.9065876853528194;0.9495931682014125;0.5840570182527697;0.08542242240356923;0.17370759206816044;0.5245401818535547;0.29641038940769654;0.615099052129997;0.5332940654560584;0.12133042164333391;0.6804048681999104;0.25645837163154594;0.35611391913683677;0.47623567922150317;0.5639646843432458;0.4827665947360364;0.5443213202124781;0.3440802616458093
0.37699821349890067;0.4040712103042439;0.40122827332287964;0.29615866804060165;0.7476894912708696;0.17445414736329312;0.2670169558012716;0.8674917340753836;0.45865049961433846;0.016107138142934352;0.514237941623002;0.5288364462578761;0.4829142831329551;0.6687503066542637;0.22279892662222547;0.6914817324736888;0.797518861862704;0.45163859433982423;0.5690047336769026;0.481666162006831;0.11443721957751646;0.10940597976224359;0.1818624534653941;0.5972459470068124;0.33707323296187924;0.4764842288303185;0.3199825753471723;0.4046938166886139;0.4474253006363201;0.3144987394775521;0.3658291260121471
0.6448678476892339;0.5556898278128468;0.017295239659776307;0.22298402992234104;0.14333581344917046;0.9583767044337317;0.9513550747100065;0.22890715835956738;0.06753954114300859;0.5192823029566578;0.27026300354583954;0.9518587322280917;0.5625285878785321;0.7147596634127975;0.1910390220134661;0.39878878868057455;0.8982171141363527;0.5620515893069813;0.5747406508417394;0.4943348840990872;0.7403430414108395;0.7667157527738955;0.7558585071422296;0.4780326706768906;0.4132898095307105;0.5571470435269166;0.4973736226076385;0.042528667870625037;0.14536792240791835;0.14933874848952883;0.7470846069450632
0.3482282836620188;0.05999815944007175;0.4002630830611089;0.717043623230612;0.42458253861876655;0.2530706834239569;0.7393936593904513;0.18117995594359693;0.4312803411672169;0.3406739157654404;0.431081676485946;0.05702667455975158;0.6589246425229451;0.2242728588245941;0.6139469371680556;0.14679766556771545;0.3823880641914098;0.8246721481364885;0.4615198816688934;0.0754949361193693;0.4685104606037094;0.06769184042403731;0.12009913483494661;0.06490499655229953;0.7288324967568433;0.18253414132163073;0.466896013335668;0.39770486972433255;0.507315792364297;0.3221201494802911;0.5179281181277712
0.7148182167729306;0.0715541120643336;0.7157439453819361;0.6208145825406496;0.32254714203348417;0.6903456935992609;0.47138395636944014;0.7316240978292202;0.5918209431176037;0.7664006495513674;0.2353043152974733;0.6278158012044862;0.45462479659364374;0.5243588535148356;0.7065019432545785;0.7575660479754538;0.41408182404790106;0.312200384156103;0.8956696328970547;0.5472695529065272;0.27144555264727077;0.360010705647635;0.5328706481601534;0.5526478010203488;0.463075152167185;0.1206743990105415;0.48869590558106524;0.3199412762687215;0.4330978809723155;0.36884459432520095;0.10625920489252111
0.36274536925865114;0.10391928278559248;0.30294823491830813;0.24363641266853045;0.7479245418654632;0.031840176912622475;0.7234668769446316;0.8853086222624116;0.7411871991481578;0.12490661069621911;0.5291921438877638;0.3628435684288617;0.5705176018974137;0.2535253236696393;0.3058404585754709;0.05427948122529308;0.6989742604071932;0.6308545630368246;0.754716206033192;0.42689897576613667;0.3016725279001571;0.17108138693436584;0.4414014608457415;0.4905126592944372;0.5753715702452533;0.3908833588087415;0.9893118376101504;0.23769343387220732;0.21022332865136037;0.5260986467672164;0.3469806004777489
0.5721478176319055;0.2553793446474272;0.6982125997547212;0.7331614403520486;0.49137686624355686;0.21773956550886406;0.280907482534274;0.13381717482629152;0.146655539603053;0.3812042856436297;0.025163195566685004;0.5023340042246232;0.4792887736513045;0.09104393445848558;0.5069814211044174;0.2732423028851396;0.32614281199860307;0.5662805758725121;0.722928914301415;0.7886584101683894;0.7515600914945674;0.25154772111379886;0.3345603396898981;0.04692771317315786;0.4603649305304882;0.17158177954838094;0.526707165833827;0.3666666130914575;0.8793452415221901;0.8593666520507572;0.5787181102730212
0.6795562559532482;0.47218350633528106;0.4750895137503611;0.684357476535399;0.6026765662291442;0.9678204823087233;0.5716566625533442;0.3533610824852863;0.393251489937073;0.7122121296878217;0.1601151803927747;0.21114058107847067;0.17148402863394985;0.34030178920973214;0.9301976291358942;0.08709610821245595;0.265609656016779;0.25586950557688515;0.2548882495250212;0.6367090679804274;0.23620230671268339;0.14295557059025882;0.2331534651230075;0.2375815350150874;0.33180613030587425;0.7457438915132687;0.6208212110353631;0.08979979280593892;0.22600961282707632;0.6705625892074678;0.4858183822759814
0.19497550253857487;0.726490584493024;0.7342596298756224;0.8883075184181437;0.8070114518516767;0.15382262555454643;0.07082969871835287;0.6211164492664998;0.6545646532306065;0.4568890476963663;0.020928456877614354;0.40198031121106764;0.3199376935460928;0.14290529960619403;0.9649990874932026;0.2691454347558715;0.10825204718502429;0.29499051511920793;0.6490418616672444;0.06275896599642228;0.3356458727761511;0.821907785744192;0.34669073597583805;0.2268895312623197;0.7459306869431099;0.226722640907499;0.13780843993522213;0.2192684774006367;0.732194615480505;0.6856969953102962;0.47942940249124866
0.2075279667903538;0.3202582452055537;0.1827630361385309;0.6497302887310097;0.6187677934009616;0.09806886989728814;0.23478796236302446;0.3580885162499017;0.28614866562862573;0.35143806091778107;0.3017695197191597;0.24832714693826963;0.07704583323550473;0.8145608743031659;0.7372520859617415;0.8486104813325893;0.38708500093709447;0.6339358146508141;0.277728777073192;0.52625931042025;0.7042778367611404;0.31318358395335566;0.9305343185353079;0.42274045762422696;0.04217879346610509;0.4993855444564844;0.9146135856500064;0.38018209603707986;0.25689490939067955;0.6348872193439523;0.20637936437008228
0.0422601759025974;0.1628975569694672;0.14603112204380098;0.4841868978458422;0.15014732965855948;0.6367199182353496;0.19778352020676504;0.020013356909107216;0.5413318201725449;0.602346951210655;0.8407848554925311;0.766913600966612;0.4999302960418097;0.2743978446629205;0.02854042864961509;0.8208666869384358;0.38539759264395834;0.4308906192758981;0.30180519246365073;0.4625115405806874;0.07843202498268365;0.36720922542428547;0.0997842112044417;0.17257202372002958;0.25967766799628755;0.49758080244050884;0.2368898070246486;0.4411077681243623;0.38598655196776777;0.2772058527506356;0.6026808505986119
0.06672200475180651;0.3553670312695825;0.3607481904567174;0.22403556250817913;0.5014522519300044;0.27108070173681154;0.19937878066208375;0.5809903985530568;0.4027115889664249;0.4000273167450663;0.3972474188982015;0.5041411389010757;0.4444434069765164;0.32562404888307045;0.5003961440286662;0.3140454338182427;0.8683856002894639;0.4983249167932452;0.477352763328914;0.3946374798917863;0.3427371594883892;0.9954145874168527;0.09863069364466132;0.18323661845243047;0.2826886024311381;0.4336860459104627;0.29545111868052354;0.6210403840682615;0.21983462031620585;0.3663257353897897;0.5981221203801024
0.6240414402421205;0.04438969590628866;0.5277617538378221;0.6902539150605694;0.198331078274528;0.18959134251063767;0.11660558296245105;0.5299651154631144;0.32091805655296746;0.5330593168570609;0.4702472381573003;0.47435119028361267;0.32547193532224317;0.576723627099596;0.3811872728104515;0.2517361924402258;0.39629593979905636;0.5360125294205442;0.38339108961168356;0.4907597795710354;0.07352706662438302;0.020901282945465505;0.5207078064942148;0.4420249489374025;0.9790738406699778;0.04072833710487184;0.37219757718864244;0.9234505982573329;0.11667066189545688;0.5721531904216609;0.1255481834111265
0.3968957894764267;0.07623934984179925;0.5534556196424373;0.4711421692684232;0.5272138584688741;0.6181784328029687;0.3382853144121216;0.5447956710961523;0.6841106304101774;0.9117693239523933;0.554244257951349;0.7290894004823959;0.1658225734867117;0.31411666601023075;0.16042765472158516;0.8973646039351164;0.5472446707089229;0.7638191939834533;0.27327991633520277;0.11270296747535852;0.6819899400063248;0.3210417481290177;0.5929108106402406;0.5632787359995172;0.9269783312583016;0.681529260495066;0.8205846960320171;0.21181313251425454;0.04540758752701535;0.32176386739580604;0.12218002115443322
0.7619923944801918;0.9854702471257726;0.5593344249196481;0.1632798399196752;0.33840311424309666;0.9352055738977181;0.54089085325847;0.5124020114405861;0.22283444618278722;0.06278245482133754;0.5804862938158101;0.4181826285308917;0.3182275079134969;0.5446696832460474;0.21181707647499887;0.3330857814062916;0.5224686435181215;0.2561917491243453;0.6302498847108432;0.28098454297922987;0.4755936254944539;0.1829057441268287;0.26708533736081996;0.5099610278038064;0.24752714596779682;0.20104315683270974;0.011666629157360497;0.671572983814753;0.27694343017176654;0.599580973088984;0.7436285899023883
0.4894072255412224;0.2684219729210491;0.40584362685750036;0.3026331165773179;0.229840025466014;0.1491558781450953;0.4257379069800188;0.9007275598632624;0.690799634594114;0.1541146884848247;0.6762977802866017;0.4894700023947559;0.621121694382644;0.07016934845471146;0.09752211935161548;0.4773360607972254;0.47425941363931196;0.37174707051742956;0.16460908972753627;0.7761416194041649;0.06869125155489308;0.44908287091728527;0.7919969202195243;0.16088539437556176;0.7384884474655002;0.32514336588658166;0.6814163969418683;0.28060016322937753;0.32777785192827424;0.8442778969723177;0.10059060474539466
0.6072900161769205;0.6197456187913654;0.6192962366966213;0.4133627687815453;0.5541353974742775;0.4968923827988905;0.5399801538649839;0.4668336275391161;0.32100095101403325;0.4982828231765777;0.084342768605291;0.5848344726492462;0.6946228937225758;0.9266450588368552;0.24075577159861658;0.25049354525169854;0.638944978164373;0.8212769721883273;0.10737718778611977;0.11820739189365853;0.0648715590560694;0.29761130313146994;0.21537168374719962;0.14592802595007642;0.8438136964695291;0.179678188090353;0.23579196167467242;0.5661802764893714;0.039572262339958475;0.11298325927885461;0.6836696638078608
0.4228115760552502;0.9943066602814642;0.7719705796285508;0.11061251373114495;0.46236550264325293;0.32698512961354664;0.6650625162743325;0.5319899535266739;0.29197147990884825;0.13334775637694402;0.2811847477844322;0.2832599837741165;0.5935435055542864;0.4489221576415669;0.8562012470483045;0.4217543362303846;0.062386645386128314;0.17058693956815119;0.673860636866779;0.2067926030494812;0.0020140465764364457;0.3083946943174014;0.41815801424663906;0.512828760702791;0.6219986802302401;0.43473727972425746;0.06721526100259084;0.1017400569517361;0.20787230192838316;0.11202740673429878;0.6741686751144211
0.2548756235438928;0.5346652154395265;0.13647908232172806;0.3749820813078242;0.7556258375781488;0.3719210285751246;0.10179030544750683;0.26830108266551833;0.18965223646233423;0.4740133726841732;0.597269932396251;0.44327747141973806;0.4629462982720765;0.6215126095662521;0.597928007323201;0.17011361681844195;0.6594729008084135;0.370280356810859;0.3967243171018759;0.44963232645905366;0.1609947042751125;0.5830705186102424;0.3686463341106978;0.1597734663295959;0.8250734788147722;0.8544245542685382;0.1613636392544444;0.6001445746340615;0.2936682041015273;0.5206411843571878;0.7572759601678594
0.468521005566493;0.5935170747749928;0.31004261422847434;0.6776996498759882;0.6834468754787844;0.24248690726295663;0.19081628693031535;0.6337074001059938;0.2800947623103231;0.2673806231138962;0.8942744266594018;0.5803484426682783;0.1465785401555283;0.5709362305228224;0.48310360087559423;0.19682781184094023;0.9606430416245649;0.3007490215485323;0.3689475376843567;0.5449468982802745;0.1535058603398222;0.558298205051504;0.8613989352370892;0.6743148590853826;0.4050189067593652;0.9591214511244657;0.635077598449153;0.34717607164752745;0.12428511960449451;0.7936164780877812;0.38400473292227216
0.89621871848973;0.25566346149436187;0.126983678732486;0.13059307487016553;0.4034650565957048;0.3053765096191957;0.233669053685564;0.21603565788122223;0.34910759919235523;0.4857643692421241;0.5480404386470829;0.2916249277258524;0.4337218621197304;0.6952351586471905;0.7914395132588063;0.2664389816746027;0.3812209154120062;0.6297471718715215;0.5042997462526547;0.4414434989895958;0.5756296237086056;0.4337637938958166;0.1232347995467506;0.7981123516781367;0.2672242662190509;0.633067860555579;0.21168762901610838;0.31110505758371393;0.0392322942132155;0.5922813220394165;0.022123142509781812
0.40364529670646276;0.679665334306259;0.5978752435672743;0.5284815484522297;0.377643321167533;0.19505155462305176;0.22323596692023437;0.5218957376512898;0.23074675276612122;0.43966190119375015;0.8085562486851539;0.07342197418921248;0.9032261206479137;0.227822985472072;0.40422386925185433;0.8058274898449908;0.514081218388987;0.4752395626808927;0.1507284601854255;0.34770020829771503;0.9110722668019652;0.19223212686396327;0.838624703415396;0.7429717784061662;0.3672948394085079;0.16688174889133933;0.44242776825639757;0.28901823967505463;0.37987120907809707;0.3657019349571965;0.3702887652645661
0.0751881329038443;0.3125634509255098;0.6160536733353535;0.6781201649155334;0.10871287994661405;0.36164435167616527;0.29068643104646136;0.46330271494368436;0.19939111782364166;0.47927638017179497;0.33094040959723503;0.4796043269169398;0.9577958598764669;0.536290784552952;0.1843324533507553;0.22172643058453395;0.43106070857562173;0.4229432892244679;0.6489937920976032;0.05729830032374972;0.21070786046384762;0.9972026003182615;0.7776319686411411;0.21240523565207417;0.49050295685390455;0.39931900602503445;0.7249029899810304;0.9310393847866064;0.262931331753804;0.33398410556992947;0.132194112199798
0.4866511867046523;0.6123642164869173;0.4612746229003995;0.7943694994356272;0.20948798847797215;0.9035453845917725;0.2641017651761335;0.32865787550476955;0.021016841918326812;0.2656276559447648;0.6037571986057808;0.6106044435173648;0.8812902143336158;0.3190163751739038;0.9475839585593107;0.18977572402215254;0.5003928596142111;0.2350208029724871;0.464883675193954;0.5961800606527724;0.7584934040717124;0.6714224306644494;0.315081383391908;0.360068901669255;0.42814982016442593;0.5720688300307951;0.07558253639555651;0.9191237635550578;0.4743650045851057;0.7890118252080336;0.001569722605091195
0.12211324622696124;0.5980701540766076;0.41085913693968856;0.38158891382121174;0.32610469101444073;0.30612477495480217;0.4207833902412569;0.5902133218045562;0.2796375625864781;0.6364997166431926;0.3786555411658812;0.36724689510039277;0.15468159226595227;0.4169686434189276;0.7019072903616542;0.5450422694089483;0.056389422464916295;0.2265051265496563;0.19740117411397384;0.06390751363009717;0.1634655595264438;0.0008908185896020493;0.03149061487497573;0.5403309450280288;0.34093287212849405;0.1618503569462758;0.43197345366613366;0.9039049947087539;0.2905728441284057;0.3917181568296717;0.6780965495131055
0.5478693880264351;0.22557681875738408;0.05928734587517931;0.8039123936815566;0.030652156693913135;0.8436671427912996;0.47612277577559203;0.35379559304725033;0.2522825101551494;0.7986577660619751;0.7230776465598745;0.2875705560066819;0.5194661222026234;0.4417633749016987;0.05886916069868586;0.43517834402134264;0.3713200537247207;0.17898289897655079;0.6359766873487043;0.9293648978982993;0.19273038525949074;0.4390446412444217;0.7448138047716402;0.13162490058358117;0.23417589371459246;0.46036503654715333;0.20252316887934219;0.40458740238711743;0.4396140617896082;0.40819688896764994;0.1479747378787184
0.527107939108375;0.2774571580794501;0.3439419732911238;0.6022257011872123;0.9515214704344814;0.19365419470069445;0.5466439502263534;0.19800064632883296;0.32098707650334446;0.30406377135816415;0.31924134354739336;0.04442326325601559;0.013678136973928556;0.49575811801473957;0.18902477041635457;0.015745229077896827;0.33446856284274323;0.8719566734086314;0.5907410613708776;0.28472869787403204;0.3022082423858565;0.8208972257250403;0.6144395662328782;0.8931396186362629;0.4285221170777707;0.21105283934925406;0.015243972174231235;0.09226754812948362;0.2655564053905725;0.5938254052635684;0.8158780320502681
0.3705959684603842;0.6816663433104742;0.06414721357677738;0.6579379617802878;0.6499819731733539;0.764182377081861;0.6690513902651034;0.7672723455506805;0.7379216917597906;0.36537891202550216;0.1015115504507606;0.4765978923373915;0.078083009778115;0.09032289729811938;0.44021205736232;0.5060835771612171;0.8830971876092537;0.5534298637054673;0.0929603777860632;0.46622680982509157;0.17529782750417222;0.32878175609327376;0.10913243767605157;0.4961227968361051;0.4888641055931631;0.22269419541437802;0.40751123070353545;0.5983021739429085;0.10241306138507195;0.3172215005908947;0.10647102863113567
0.9643450062633088;0.6388766543874631;0.36305097373127576;0.34795592862781055;0.5133330810604124;0.20130564985544133;0.2584567711335155;0.6949571478671239;0.8955863568015254;0.18629162020951623;0.5738874436154949;0.20681341240320514;0.6600441911417625;0.8906403988455611;0.4986729099128219;0.7899223959862318;0.06331280452646953;0.4786506869759842;0.5647484627060781;0.506301134031975;0.381182907808447;0.5462377401147134;0.3712815061161566;0.02718213315825735;0.5768982210415546;0.0024519833218072384;0.6933365690778422;0.0785022050546541;0.6805144352524128;0.27830218390340683;0.2896801154589084
