95;280;0.5;0.5;0.14509450977989038;0
175;280;0.5;0.5;-0.11795748318280623;0
365;280;0.5;0.5;0.5760678606491861;0
445;280;0.5;0.5;-0.4293924803106082;0
635;280;0.5;0.5;0.17866448046345657;0
715;280;0.5;0.5;-0.27699119537633604;0
95;440;0.5;0.5;0.2885825540512928;0
175;440;0.5;0.5;0.7864514515028471;0
365;440;0.5;0.5;0.8728147776102846;0
445;440;0.5;0.5;0.6545231719735043;0
635;440;0.5;0.5;0.6801860617980898;0
715;440;0.5;0.5;0.4045769893555584;0
95;600;0.5;0.5;0.1495635118523698;0
175;600;0.5;0.5;0.7450941702942107;0
365;600;0.5;0.5;0.07891680438044625;0
445;600;0.5;0.5;0.5004935509146738;0
635;600;0.5;0.5;0.6391219995066812;0
715;600;0.5;0.5;-0.7995433685486927;0
95;760;0.5;0.5;-0.4326790361849322;0
175;760;0.5;0.5;0.639262407719382;0
365;760;0.5;0.5;0.37393199883272105;0
445;760;0.5;0.5;-0.03212095528638595;0
635;760;0.5;0.5;-0.226317241502534;0
715;760;0.5;0.5;-0.31551791190945816;0
95;920;0.5;0.5;-0.3616260686704917;0
175;920;0.5;0.5;0.31293730746942;0
365;920;0.5;0.5;0.6253154988324433;0
445;920;0.5;0.5;0.1632238942156552;0
635;920;0.5;0.5;-0.040354230636032086;0
715;920;0.5;0.5;-0.638527174642597;0
400;150;0.5;0.5;1;1
