80;250;0.5;0.5;-0.22192656903594565;0
80;330;0.5;0.5;-0.0049683177931471685;0
80;410;0.5;0.5;-0.780027482068537;0
80;490;0.5;0.5;0.6880089025091983;0
80;570;0.5;0.5;0.2629563172114992;0
80;650;0.5;0.5;-0.2652699368479323;0
80;730;0.5;0.5;-0.02280538373355272;0
80;810;0.5;0.5;-0.2327294332282753;0
120;150;0.5;0.5;0.05489263302482435;0
200;150;0.5;0.5;0.5389414543344422;0
120;910;0;0;0.49821583870481634;0
200;910;0;0;-0.14762696399922634;0
280;910;0.5;0.5;0.70894489658808;0
360;910;0.5;0.5;0.2689548901080712;0
440;150;0.5;0.5;0.5984584372390798;0
440;910;0.5;0.5;0.33473698418110576;0
520;150;0;0;0.13474978769451465;0
520;910;0;0;0.035082404956068076;0
600;150;0;0;0.33473698418110576;0
600;910;0;0;0.486751169871466;0
680;150;0;0;0.035082404956068076;0
680;910;0;0;0.04013533329998017;0
720;250;0.5;0.5;-0.7225758110834206;0
720;330;0.5;0.5;-0.06137078124356477;0
720;410;0.5;0.5;-0.6014032575773098;0
720;490;0.5;0.5;-0.6861946002134205;0
720;570;0.5;0.5;-0.7511132722208496;0
720;650;0.5;0.5;-0.757499412375429;0
720;730;0.5;0.5;-0.8274799897588042;0
720;810;0.5;0.5;-0.5499027329249925;0
320;80;0.5;0.5;0.5;1
