0.5130930516470038;0.3942839939786339;0.5734255325466496;0.44957930566628296;0.3601049730287579;0.5784707725028962;0.5183344705068729;0.9691586095227411;0.3118490161234021;0.3588789554932138;0.5984227573226163;0.4961959134678132;0.5537816500116219;0.45836604355596183;0.6504962066075467;0.5844624551757295;0.5644144144479131;0.4775886007348328;0.5239460210771979;0.2838447404911046;0.20511516806263347;0.6873980535572884;0.5986593890014092;0.7865712027527536;0.6261687782482678;0.5952152667615668;0.39046046480979657;0.7484130216182965;0.4946450722661134;0.6453444927577805
0.19758252100032359;0.4212558564127066;0.37508058553784457;0.34544070760476;0.41497801010913743;0.8889891217131124;0.42530118707317077;0.49597280014942935;0.6940745880767095;0.5650203066285527;0.5066422776813736;0.35591698821373363;0.5366007357053173;0.1641207116688881;0.7370993459879948;0.6756384770044271;0.48929783943712485;0.4873467209605663;0.31714440866673954;0.36430480742173443;0.5045871605730177;0.17374189498171216;0.2871437405726608;0.7130877284755041;0.442824819023835;0.18786065634187998;0.26859757429726705;0.39942821747307505;0.5171783029262439;0.2269953076807923
0.896107720199227;0.21024250361767033;0.7674313012177627;0.4304213049858454;0.10821627764452668;0.6504296754504112;0.28473895373082625;0.5221096061648696;0.6333287383909997;0.3401874041207208;0.41720419851515744;0.43178987232704874;0.8023502265127099;0.13738901071515652;0.49765519734810265;0.4865430077638143;0.4657079600879116;0.36791414224094954;0.3751399348469819;0.9048722712335573;0.17174328270275896;0.5386388965762876;0.6608587812306004;0.353196785502026;0.2798414047700878;0.4828550103753337;0.5752480773399041;0.31887695397857485;0.39849574404585014;0.8867395084607566
0.5911952001585976;0.6199929961647378;0.5536022326928308;0.6849514730586143;0.3962001760550432;0.48202544797528724;0.3344642033673802;0.6799216371354178;0.546249336034819;0.4512572820120661;0.6493323781238909;0.43988588938307427;0.4688190147738794;0.60132369253262;0.42849536030300095;0.6439517548543104;0.5087211496333696;0.5794198460282087;0.831264366619624;0.20613761196014702;0.5051273658627439;0.5851685258161671;0.7124554245305943;0.24600709584558295;0.6258391911941082;0.5172865400607134;0.4519716326946602;0.8334795422400392;0.6327972054544053;0.5399860219315064
0.6259289193894279;0.7624717504344052;0.3949254548401688;0.620775112350821;0.6702619308451829;0.4497639402688631;0.2744121705385879;0.2782000845854947;0.36131391757152587;0.5651554906216286;0.5902395055089362;0.4820075046804685;0.4963925363633989;0.5895621139517546;0.6527754012322134;0.24375097483254288;0.4027677708741369;0.6790553938921968;0.6934109838285356;0.4172846404760772;0.5969862609451828;0.0945069568787616;0.4200910255946126;0.5882285754094669;0.36989972608276595;0.39312641814234717;0.23410188739772853;0.20151706432898836;0.3105096311488591;0.6432213910749484
0.6569875469261138;0.11350710323748237;0.610825784829554;0.21621149221869845;0.7232878646242837;0.7414750288259598;0.5944480781970818;0.18978144738743236;0.5806311057556577;0.31057324868285135;0.4426990396945892;0.6640074386030457;0.5862566925597729;0.33974843633672314;0.3808214525260751;0.2280986002815129;0.32949403160670576;0.7657488288458116;0.5038135690299185;0.590386566928153;0.6417724040226179;0.8941392008792466;0.20347285949072452;0.6616623755898009;0.531583513370454;0.6502480033544994;0.7178042137858756;0.5739351542718129;0.5015429253721929;0.5507969829421423
0.36130845599290673;0.8240507724816195;0.21880716246625814;0.7814805313290324;0.355510354504573;0.6301138144099879;0.2340719512875527;0.5552168079497811;0.44757759450905615;0.6225392901072374;0.6840405066563605;0.3707805648893042;0.5297714451847586;0.5673918181274191;0.5616983701147038;0.6054300766049447;0.5933896371728603;0.47222364321322696;0.9865870506412963;0.43814824518551176;0.42901088523919995;0.3354895823680141;0.2787984848944348;0.6821420345566493;0.5072791315729083;0.595034598032077;0.6758201123694129;0.6658917788091574;0.057095421452498574;0.36226286658369283
0.7057935274465558;0.7849717437549052;0.4746105583133056;0.41433124955209494;0.48685477797901716;0.506883151766674;0.3121023165922422;0.6432169355855176;0.47480418612224606;0.4829518101613391;0.42616141334417523;0.44849141571710976;0.27084082338128335;0.4836887271465895;0.4585690358030035;0.6032430817380163;0.14071075392883642;0.790524788638368;0.5538588085620536;0.3857080558015127;0.1811491187745103;0.6358425795803582;0.2044998047059759;0.421415438791465;0.5200170306036984;0.7510721717169655;0.858425877140026;0.8360915459148963;0.29863217816473775;0.9235227659262102
0.7686512991358567;0.7310041489100301;0.6944074190625203;0.4763947431769329;0.41029276989432534;0.7361773728298577;0.45997113052994054;0.569047489645181;0.5196455703983522;0.41998825474484175;0.49690133764723043;0.27144926558316274;0.9308482373467997;0.8391758059745866;0.5132630542513906;0.6648485816470079;0.43311894924632427;0.529798825609219;0.6234098917030221;0.877298446613491;0.46003885021764507;0.1684318424686596;0.5709454077358146;0.53531033105505;0.5162583148369948;0.5611251813467377;0.7718033638284961;0.2627604817015262;0.5072894327333747;0.7026342700794695
0.7107678789736304;0.3704147820939304;0.6752825738588211;0.6406285176198354;0.47639023954479326;0.3549823655398928;0.6541251906774579;0.731387322614404;0.23555614062191477;0.35615657892840147;0.1145063523290199;0.7786349800553618;0.43970004431385223;0.33526010560435393;0.7646606048091467;0.13003413886895104;0.5153663421724075;0.288294878958671;0.5862613002383668;0.8299146601489553;0.3879874543367968;0.4232739270021932;0.40538615891128627;0.7835591871622736;0.6699581249875595;0.6576562378923934;0.5127527354003273;0.31191696505603117;0.521320676674959;0.4171698301157979
0.5405617804872217;0.8680325017437627;0.5355058567881056;0.09269151727000641;0.5818826955195776;0.460488087458333;0.9504477333586914;0.5297910275095833;0.5018092686650999;0.4299820421945542;0.08032546808170227;0.5314101572207061;0.5205335867942458;0.5175724203072026;0.741384555403708;0.7387716232443594;0.31980824851978806;0.9540587016248547;0.5189573180610838;0.37301886680017704;0.3105594701618465;0.4389106684965501;0.37123118525001986;0.40433072064893977;0.526766522766366;0.35742599826526655;0.47838844143278886;0.20750058113313302;0.4338974086402494;0.6193910029930121
0.02065643517693727;0.3719346158224969;0.5734766974537843;0.6074342435205355;0.7173561632988817;0.4518322559460657;0.7219026142148215;0.5441752875157306;0.4935812232322883;0.16917439811374674;0.6601776836120289;0.760756389067113;0.6033826317573513;0.5569267332656226;0.5912363975985214;0.677027298950354;0.33747923545121916;0.352946788804699;0.4095177262321662;0.4246106236451277;0.5001436632018629;0.46225891760258353;0.7578792254044825;0.7053968781095423;0.6055924973951974;0.22908438282669852;0.7599823833371617;0.727068373313916;0.24748579822844058;0.05079274808351408
0.5132792261719419;0.549267942142317;0.5299327704961815;0.48292347165166755;0.45165013855851993;0.36387046160277836;0.38237595152725923;0.5016354254818932;0.37815726724362125;0.36693562317205475;0.6427724172882541;0.6955034440139323;0.46609700767257606;0.6686549600718854;0.6142248599912457;0.4948843684821145;0.3737987378794291;0.3525479862662497;0.26353268622613524;0.4843765162456875;0.5566440197692798;0.2975242340962474;0.37349135803005085;0.5694313334345875;0.49454569972920287;0.6239195333214218;0.615446032034744;0.7399378223742192;0.2936415321459631;0.5198520226176618
0.8106314949633573;0.6573480946868686;0.58271720680095;0.5231156635784989;0.589588748758877;0.46554257823216544;0.1839601834357073;0.9820708007082356;0.6058008761271159;0.3326326381730673;0.76349091410015;0.5502791403022199;0.6278901372491008;0.7165602143041299;0.5350282791350249;0.5027400214368708;0.47072457311720645;0.8180811201690925;0.5947128493704853;0.23355908858385532;0.7041709684360119;0.7114736439784295;0.8647946490314193;0.23976743411424545;0.7831680521537656;0.5339764301047109;0.2493777651431111;0.5767847356785564;0.5169855457251109;0.7485373295592517
0.4798217786201878;0.7644778181236432;0.8066965365668739;0.8813985633546568;0.2255688181381958;0.5082861137833333;0.7536483374462055;0.39795539448304573;0.7842077413480192;0.21814447941517368;0.491425843398675;0.4184448325210496;0.6655976073670116;0.6849771950483419;0.27221809902067784;0.5195007391595846;0.570546712910244;0.48647330360674984;0.41969601641227006;0.5843522502557996;0.6766740005862025;0.022335167099193143;0.553446725076643;0.8269329946235852;0.5317719395836038;0.49536630091834416;0.21003807653403755;0.47547065218119133;0.21184235836993842;0.30637384216528285
0.1421975113793627;0.22829884110859427;0.4028251387258353;0.8284200122024543;0.21607794461035235;0.5746106609676005;0.6303886897880069;0.7586209114353157;0.38317367499685745;0.4753334588415007;0.26121998851710904;0.5843214956626074;0.4203762994005985;0.8874135801710411;0.3526058819334777;0.39817961835732774;0.5163031682680058;0.5056769658564675;0.3819596518663796;0.6199753160978826;0.5433764781627441;0.6685683847950662;0.9473993885332859;0.5593509752840209;0.010011951883750259;0.4821382688291466;0.3654119075035571;0.41704404600650835;0.5783254675430209;0.5147914620314391
0.5306053868316922;0.499588044965957;0.47509267895883733;0.5895853362217462;0.5264961244789804;0.23284741776080925;0.4714994412495292;0.2915242422154808;0.7636005326257167;0.4541047430887226;0.6405066623290205;0.6008519819666426;0.5575523632370811;0.4880667087874699;0.7339652007035314;0.6175167978679031;0.4622456270894124;0.2772213940110934;0.5622712035498675;0.47305111212811407;0.6687549719152242;0.6551005609642121;0.5884807058368433;0.6245446634946283;0.5800300951826677;0.4060058706986486;0.5075609973911924;0.5356789589312339;0.6483158364611206;0.3313644995522902
0.5137119382056167;0.8296350618032504;0.36736381337537105;0.588044930342144;0.21942091644314865;0.333662855498544;0.7171217429930474;0.49013031273068713;0.4921619083125695;0.590075891129868;0.4776255941309513;0.44081708792621943;0.2982538630481384;0.18202597528125686;0.30522936780598653;0.5686317076051445;0.7510633540404201;0.5639189527582154;0.4486480864782968;0.31369379960894817;0.5714654660805127;0.6412327257357943;0.09586616754683752;0.2738412498302977;0.3012360368850134;0.18357852193520036;0.6300357095128605;0.7256612894174705;0.4409574351069922;0.712100974920593
0.36849677259070024;0.317285455736281;0.26399394438252605;0.27383594840596814;0.4338560906877974;0.22936669377945768;0.46394349011255037;0.48459486998863516;0.48785139905646235;0.7973493468604331;0.5496686917358846;0.695580041299901;0.7031113689760847;0.32953797809138735;0.5691847832385408;0.3915102305022221;0.2898168808920679;0.29389292593482436;0.3181313257256899;0.5292157079218021;0.6049410504803023;0.5789114130459004;0.5173873701375427;0.25478323118019913;0.744555769010275;0.6401353327552894;0.520169956158035;0.43440987879771215;0.38767640798439446;0.3645950373277589
0.5591955527393102;0.4277295648600244;0.5857192824566426;0.2068294384962211;0.7122678177384681;0.23129843125874056;0.4719136018980252;0.6085111756063069;0.3284471954580632;0.44155370166546776;0.8417721819978762;0.737265777844596;0.2585529152364574;0.6766534754262367;0.4269506703646468;0.7042920765223761;0.6544189885782372;0.3613395647290049;0.3620966309537237;0.34183194724250865;0.6022285480801658;0.2563413857012666;0.45952419621648033;0.5463927176073172;0.5293514595957629;0.4499076373176373;0.42719604326998134;0.551454846150742;0.659344232564377;0.4405926648286005
0.4972376200113426;0.046414703005606794;0.8402833184251651;0.3208636659333709;0.618954647665001;0.6230288144664552;0.512438684299123;0.9823950844716116;0.4116224834303832;0.3879863381495229;0.36842141920637594;0.5108304034707042;0.1261982658755787;0.9370425346193696;0.7407532667891696;0.17910183705982397;0.7120802310851826;0.39621540748725803;0.6353876907492096;0.5072032040703583;0.25537700429379595;0.03942669271201349;0.5943008040951517;0.5852237340170545;0.7329154854694984;0.367606922055269;0.8163747596395403;0.5456942989752903;0.6115246850594974;0.5202350864028152
0.5890621243714736;0.19626451366559033;0.4156302920576559;0.3389678169341791;0.4808932929069372;0.47050716405445836;0.4173481325425278;0.5120926403942689;0.46672137135394953;0.816094687854763;0.743588373669776;0.5300711838345941;0.6889395713449034;0.5883379256033943;0.99521615590611;0.43210357870206195;0.4195743077227462;0.33116212651173615;0.5749093268899377;0.23795960977756409;0.5271079181962787;0.5601042103165592;0.5837429983064161;0.2969113032724491;0.620106418974617;0.5082468744156451;0.5343114742431861;0.5665996649745622;0.44628457516179465;0.3670546509199047
0.5387716777136833;0.5633751352553895;0.5628828936088535;0.2172916453891986;0.7101247489630458;0.5715825463038028;0.5195144856425793;0.5458098720256593;0.6453347450288693;0.7255405002187076;0.43692374663247496;0.6023824776141423;0.248980314806236;0.6268469827224761;0.5742230995457677;0.8275892123578865;0.31595365949157767;0.39780475435758605;0.2210640098410956;0.34696346362722114;0.2791189185297286;0.6731547015410032;0.3404763715323944;0.3789450371673311;0.606320612726488;0.6135476802501835;0.39932410169953364;0.1745376707427122;0.6954260165905434;0.778327499690536
0.24504967020306762;0.4221642421010092;0.9784036225333941;0.564792759330183;0.5337568691754636;0.3471736078918396;0.5187812361343735;0.6168181704973943;0.5777785569837337;0.25751989483977245;0.6803688999648694;0.5656599868058372;0.28154542320652887;0.7865716752444569;0.39658041744918215;0.3624380907881561;0.33165641119477324;0.4285158896934743;0.9233339790718034;0.17485076588370557;0.2152991984661201;0.5208192875260828;0.5209978991036344;0.7559502080139884;0.40170575591345475;0.541993301918093;0.5024434756859383;0.46560274810369773;0.5187214016415708;0.8759338269246848
0.4089840329169348;0.8671553538187039;0.7270983407016917;0.5717006055780351;0.27790440071658506;0.24271976875195345;0.6634745523746707;0.6589297175477795;0.8900588651143793;0.9555452591139377;0.25546033861730166;0.6480690221585864;0.25804532848560413;0.38060913730685947;0.39116354759847594;0.3942386528404048;0.6767759088278499;0.5858636556611913;0.5693477284351991;0.6398942483883084;0.46009845241845004;0.625473344356558;0.4523119216882385;0.6898950916448936;0.6301176981165446;0.15876275997240052;0.583798299112456;0.6873627440805439;0.548690839139109;0.5850986297777714
0.6012858871269098;0.7850813109535854;0.4122916202967256;0.3736344171281163;0.4527580128926916;0.27016716894997916;0.725572244876686;0.4006165453298659;0.9026991555950412;0.5573131226171631;0.3742031301816744;0.5847165843642746;0.6195020038832226;0.08784681654724202;0.641154571280545;0.08860257531750104;0.4479916254769541;0.35457744956963894;0.43982823279291394;0.45980450300584547;0.24456696218457408;0.565120373633673;0.7440080545741884;0.43853618362645874;0.6522798769967214;0.5222296856544387;0.4388716356341709;0.5639693962589372;0.16480413122082777;0.2950742055115431
0.5137993019909954;0.5840150928129737;0.6380407417220689;0.2054340531439508;0.648390274345623;0.46260189860085243;0.4670382817099068;0.20315711902206718;0.32222355497766586;0.7091977108874913;0.6634602376236092;0.22337092953537147;0.4454152497019799;0.8877528302350269;0.5297334631549608;0.27077996977589786;0.20999772548063717;0.5133839529968057;0.34803325819982683;0.2698385905846381;0.4639262789436428;0.5413579599722189;0.6351857557080196;0.5754406067190267;0.5737007288447136;0.2853889085384689;0.2419687657846803;0.3545699936590744;0.5501337745899906;0.6194138934959856
0.744829159193249;0.5650389496217466;0.23048307230446624;0.3727973184543642;0.5768502293387437;0.40321103747926335;0.7487171007516754;0.48742188473819953;0.4812661394664577;0.37635414540683576;0.4180510422499618;0.5115406467307233;0.44248587658843197;0.5950948769242143;0.5669666016161266;0.68560150984219;0.5523127727673799;0.6744369384623689;0.3988166694282367;0.8631734491053709;0.6676923590897488;0.16873737520624005;0.666623211262906;0.3154495204466301;0.5831285126058714;0.5773476868163052;0.31302172121730065;0.876037655480562;0.31838843075655454;0.5101739379278033
0.34760349397110146;0.4209129959342286;0.36194710629859295;0.8253637388089374;0.806345671685923;0.741305492352468;0.7112665324266665;0.33762092755539047;0.4896296986321658;0.2428240386925375;0.5060084302527513;0.5619374682996854;0.3331749082123301;0.5792165538692728;0.5057632872754552;0.36732957781850606;0.3581766428151236;0.5990688603621639;0.439852898071596;0.1395482417787292;0.248125111837247;0.5353652689124766;0.24780001946568153;0.32888670203693904;0.5857814125992732;0.3866243714279832;0.07693494627331166;0.4359506049006635;0.9626191692647303;0.4644348784227093
0.3035457239271824;0.466445140995062;0.19653007010328066;0.5651701024436822;0.2238240654005365;0.3031906932672616;0.2927754030045193;0.5433040183626452;0.5974547399518892;0.9641648805278248;0.3372823522954946;0.07118008304556395;0.4422112220816619;0.506116015863036;0.5926724924563083;0.5978333766934599;0.5946684124256685;0.9985184775033897;0.49086139462087175;0.7874829442266271;0.6181250506132895;0.46350494488388605;0.7642616979006913;0.3680942620694687;0.587712947252318;0.0697011440325922;0.4484635777992532;0.5335900013207582;0.2957389183558924;0.9605902430989876
