95;280;0.5;0.5;0.2300580528845261;0
175;280;0.5;0.5;0.318632650317416;0
365;280;0.5;0.5;-0.31500040097051557;0
445;280;0.5;0.5;0.5972514834994562;0
635;280;0.5;0.5;-0.40918297624343175;0
715;280;0.5;0.5;0.390742741727127;0
95;440;0.5;0.5;0.2841565334135832;0
175;440;0.5;0.5;-0.10584474098528139;0
365;440;0.5;0.5;0.04987264981900641;0
445;440;0.5;0.5;0.3639347229901639;0
635;440;0.5;0.5;-0.4231891726927252;0
715;440;0.5;0.5;-0.02516405635146543;0
95;600;0.5;0.5;0.5614241024724309;0
175;600;0.5;0.5;0.4949796661610768;0
365;600;0.5;0.5;-0.2013628885449665;0
445;600;0.5;0.5;-0.3295093886243583;0
635;600;0.5;0.5;-0.3590380730113457;0
715;600;0.5;0.5;-0.18806215640870344;0
95;760;0.5;0.5;-0.14650234132096704;0
175;760;0.5;0.5;-0.38833589333136853;0
365;760;0.5;0.5;-0.14181553081618054;0
445;760;0.5;0.5;0.22035518560711598;0
635;760;0.5;0.5;0.9277426199430581;0
715;760;0.5;0.5;0.12834315545968403;0
95;920;0.5;0.5;-0.10728457352912124;0
175;920;0.5;0.5;-0.3796349267748427;0
365;920;0.5;0.5;0.8383993098593239;0
445;920;0.5;0.5;-0.23818186395661406;0
635;920;0.5;0.5;0.047653213645276804;0
715;920;0.5;0.5;-0.42043101445896414;0
400;150;0.5;0.5;0.5;1
